{
    "cordova-plugin-device": {
        "source": {
            "type": "registry",
            "id": "cordova-plugin-device@~1.1.1"
        },
        "is_top_level": true,
        "variables": {}
    },
    "cordova-plugin-whitelist": {
        "source": {
            "type": "registry",
            "id": "cordova-plugin-whitelist@~1.2.1"
        },
        "is_top_level": true,
        "variables": {}
    },
    "cordova-plugin-splashscreen": {
        "source": {
            "type": "registry",
            "id": "cordova-plugin-splashscreen@~3.1.0"
        },
        "is_top_level": true,
        "variables": {}
    },
    "cordova-plugin-statusbar": {
        "source": {
            "type": "registry",
            "id": "cordova-plugin-statusbar@~2.1.0"
        },
        "is_top_level": true,
        "variables": {}
    },
    "ionic-plugin-keyboard": {
        "source": {
            "type": "registry",
            "id": "ionic-plugin-keyboard"
        },
        "is_top_level": true,
        "variables": {}
    },
    "cordova-plugin-facebook4": {
        "source": {
            "type": "registry",
            "id": "cordova-plugin-facebook4@~1.6.3"
        },
        "is_top_level": true,
        "variables": {
            "APP_ID": "1732270613677459",
            "APP_NAME": "Decostore"
        }
    },
    "cordova-plugin-x-socialsharing": {
        "source": {
            "type": "git",
            "url": "https://github.com/EddyVerbruggen/SocialSharing-PhoneGap-Plugin.git",
            "subdir": "."
        },
        "is_top_level": true,
        "variables": {}
    },
    "cordova-plugin-camera": {
        "source": {
            "type": "registry",
            "id": "cordova-plugin-camera@~2.1.0"
        },
        "is_top_level": true,
        "variables": {}
    }
}